{
  "heptools": {
    "version": "102b_LHCB_7",
    "packages": [
      "AIDA",
      "blas",
      "Boost",
      "cachetools",
      "catboost",
      "Catch2",
      "chardet",
      "clhep",
      "click",
      "coverage",
      "cppgsl",
      "CppUnit",
      "crmc",
      "DD4hep",
      "doxygen",
      "eigen",
      "fastjet",
      "fftw",
      "flatbuffers",
      "fmt",
      "future",
      "gdb",
      "gperftools",
      "graphviz",
      "GitCondDB",
      "GSL",
      "HepMC",
      "HepPDT",
      "herwig3",
      "idna",
      "ipython",
      "jemalloc",
      "Jinja2",
      "jsonmcpp",
      "lhapdf",
      "libgit2",
      "libunwind",
      "libxml2",
      "lxml",
      "madgraph5amc",
      "matplotlib",
      "mpmath",
      "networkx",
      "oracle",
      "packaging",
      "pathos",
      "pydantic",
      "pydot",
      "pytest",
      "photos++",
      "powheg-box-v2",
      "pythia6",
      "pythia8",
      "Python",
      "pyzmq",
      "rangev3",
      "RELAX",
      "rivet",
      "rivet",
      "ROOT",
      "ruamel_yaml",
      "six",
      "sortedcontainers",
      "spdlog",
      "sqlite",
      "starlight",
      "sympy",
      "tauola++",
      "tbb",
      "tensorflow",
      "torch",
      "thepeg",
      "Vc",
      "vdt",
      "veccore",
      "vectorclass",
      "wcwidth",
      "wrapt",
      "XercesC",
      "xgboost",
      "xqilla",
      "xrootd",
      "yamlcpp",
      "yoda",
      "PyYAML"
    ]
  }
}
