x86_64-centos7-gcc10-opt
x86_64-centos7-gcc11-opt
x86_64-centos7-clang12-opt
x86_64-centos7-gcc10fp-opt
x86_64-centos7-gcc10-dbg
x86_64-centos7-gcc11-dbg
x86_64-centos7-clang12-dbg
x86_64-centos7-gcc10fp-dbg
