{
   "heptools" : {
      "version" : "101",
      "packages" : [
         "AIDA",
         "Boost",
         "catboost",
         "chardet",
         "clhep",
         "cppgsl",
         "CppUnit",
         "doxygen",
         "eigen",
         "fastjet",
         "fftw",
         "flatbuffers",
         "gdb",
         "graphviz",
         "GSL",
         "HepMC",
         "HepPDT",
         "idna",
         "ipython",
         "blas",
         "libgit2",
         "libunwind",
         "libxml2",
         "lxml",
         "matplotlib",
         "mpmath",
         "networkx",
         "oracle",
         "pathos",
         "Python",
         "rangev3",
         "RELAX",
         "ROOT",
         "sqlite",
         "tbb",
         "gperftools",
         "tensorflow",
         "Vc",
         "vdt",
         "veccore",
         "vectorclass",
         "wcwidth",
         "XercesC",
         "xgboost",
         "xqilla",
         "xrootd",
         "packaging",
         "fmt",
         "six",
         "coverage",
         "jemalloc",
         "future",
         "jsonmcpp",
         "spdlog",
         "gperftools",
	     "sortedcontainers",
	     "yamlcpp",
         "wrapt",
         "pytest",
         "click",
         "cachetools",
         "torch",
         "sympy",
         "jinja2",
         "Qt5",
         "Catch2",
         "pyzmq",
         "pydantic"
      ]
   }
}
