{
   "heptools" : {
      "version" : "96b",
      "packages" : [
         "AIDA",
         "Boost",
         "catboost",
         "chardet",
         "CLHEP",
         "COOL",
         "CORAL",
         "cppgsl",
         "CppUnit",
         "doxygen",
         "eigen",
         "fastjet",
         "fftw",
         "flatbuffers",
         "Frontier_Client",
         "gdb",
         "graphviz",
         "GSL",
         "HepMC",
         "HepPDT",
         "idna",
         "ipython",
         "lapack",
         "libgit2",
         "libunwind",
         "libxml2",
         "lxml",
         "matplotlib",
         "mpmath",
         "networkx",
         "neurobayes_expert",
         "oracle",
         "pathos",
         "pyanalysis",
         "pygraphics",
         "pyqt5",
         "Python",
         "pytools",
         "QMtest",
         "Qt5",
         "rangev3",
         "RELAX",
         "ROOT",
         "sqlite",
         "tbb",
         "tcmalloc",
         "tensorflow",
         "Vc",
         "vdt",
         "veccore",
         "vectorclass",
         "wcwidth",
         "XercesC",
         "xgboost",
         "xqilla",
         "xrootd",
         "packaging",
         "fmt",
         "six",
         "coverage",
         "jemalloc",
         "future"
      ]
   }
}
