{
    "heptools" : {
	"version" : "95",
	"package_versions" : [
	    ["alpgen", "2.1.4"],
	    ["herwig++", "2.7.1"],
	    ["herwig3", "7.1.4"],
	    ["hijing", "1.383bs.2"],
	    ["lhapdf", "6.1.6.cxxstd"],
	    ["photos++", "3.56"],
	    ["powheg-box-v2", "r3043.lhcb"],
	    ["powheg-box-v2", "r3043.lhcb.rdynamic"],
	    ["pythia6", "427.2"],
	    ["pythia8", "235"],
	    ["rivet", "2.6.0"],
	    ["tauola++", "1.1.6b.lhcb"],
	    ["thepeg", "2.1.1"],
	    ["crmc", "1.5.6"],
	    ["yoda", "1.6.7"],
	    ["starlight", "r300"],
	    ["madgraph5amc", "2.6.1.atlas"],
	    ["sherpa", "2.2.5"]
	]
    }
}
